<svg width="29" height="22" viewBox="0 0 29 22" fill="none" xmlns="http://www.w3.org/2000/svg">
<path fill-rule="evenodd" clip-rule="evenodd" d="M1.61111 0H20.3C21.1898 0 21.9111 0.703553 21.9111 1.57143C21.9111 2.4393 21.1898 3.14286 20.3 3.14286H1.61111C0.721319 3.14286 0 2.4393 0 1.57143C0 0.703553 0.721319 0 1.61111 0ZM1.61111 18.8571H16.4333C17.3231 18.8571 18.0444 19.5607 18.0444 20.4286C18.0444 21.2964 17.3231 22 16.4333 22H1.61111C0.721319 22 0 21.2964 0 20.4286C0 19.5607 0.721319 18.8571 1.61111 18.8571ZM1.61111 9.42857H27.3889C28.2787 9.42857 29 10.1321 29 11C29 11.8679 28.2787 12.5714 27.3889 12.5714H1.61111C0.721319 12.5714 0 11.8679 0 11C0 10.1321 0.721319 9.42857 1.61111 9.42857Z" fill="white"/>
</svg>
